{
  "runtimeTarget": {
    "name": ".NETCoreApp,Version=v2.2",
    "signature": "cb0c5654ae80827f75d657035faf583edb9ca27b"
  },
  "compilationOptions": {},
  "targets": {
    ".NETCoreApp,Version=v2.2": {
      "MicroService.Utility.Security/1.0.0": {
        "dependencies": {
          "System.Security.Cryptography.Algorithms": "4.3.1"
        },
        "runtime": {
          "MicroService.Utility.Security.dll": {}
        }
      },
      "runtime.debian.8-x64.runtime.native.System.Security.Cryptography.OpenSsl/4.3.2": {
        "runtimeTargets": {
          "runtime/debian.8-x64/native/_._": {
            "rid": "debian.8-x64",
            "assetType": "native"
          }
        }
      },
      "runtime.fedora.23-x64.runtime.native.System.Security.Cryptography.OpenSsl/4.3.2": {
        "runtimeTargets": {
          "runtime/fedora.23-x64/native/_._": {
            "rid": "fedora.23-x64",
            "assetType": "native"
          }
        }
      },
      "runtime.fedora.24-x64.runtime.native.System.Security.Cryptography.OpenSsl/4.3.2": {
        "runtimeTargets": {
          "runtime/fedora.24-x64/native/_._": {
            "rid": "fedora.24-x64",
            "assetType": "native"
          }
        }
      },
      "runtime.native.System.Security.Cryptography.Apple/4.3.1": {
        "dependencies": {
          "runtime.osx.10.10-x64.runtime.native.System.Security.Cryptography.Apple": "4.3.1"
        }
      },
      "runtime.native.System.Security.Cryptography.OpenSsl/4.3.2": {
        "dependencies": {
          "runtime.debian.8-x64.runtime.native.System.Security.Cryptography.OpenSsl": "4.3.2",
          "runtime.fedora.23-x64.runtime.native.System.Security.Cryptography.OpenSsl": "4.3.2",
          "runtime.fedora.24-x64.runtime.native.System.Security.Cryptography.OpenSsl": "4.3.2",
          "runtime.opensuse.13.2-x64.runtime.native.System.Security.Cryptography.OpenSsl": "4.3.2",
          "runtime.opensuse.42.1-x64.runtime.native.System.Security.Cryptography.OpenSsl": "4.3.2",
          "runtime.osx.10.10-x64.runtime.native.System.Security.Cryptography.OpenSsl": "4.3.2",
          "runtime.rhel.7-x64.runtime.native.System.Security.Cryptography.OpenSsl": "4.3.2",
          "runtime.ubuntu.14.04-x64.runtime.native.System.Security.Cryptography.OpenSsl": "4.3.2",
          "runtime.ubuntu.16.04-x64.runtime.native.System.Security.Cryptography.OpenSsl": "4.3.2",
          "runtime.ubuntu.16.10-x64.runtime.native.System.Security.Cryptography.OpenSsl": "4.3.2"
        }
      },
      "runtime.opensuse.13.2-x64.runtime.native.System.Security.Cryptography.OpenSsl/4.3.2": {
        "runtimeTargets": {
          "runtime/opensuse.13.2-x64/native/_._": {
            "rid": "opensuse.13.2-x64",
            "assetType": "native"
          }
        }
      },
      "runtime.opensuse.42.1-x64.runtime.native.System.Security.Cryptography.OpenSsl/4.3.2": {
        "runtimeTargets": {
          "runtime/opensuse.42.1-x64/native/_._": {
            "rid": "opensuse.42.1-x64",
            "assetType": "native"
          }
        }
      },
      "runtime.osx.10.10-x64.runtime.native.System.Security.Cryptography.Apple/4.3.1": {
        "runtimeTargets": {
          "runtime/osx.10.10-x64/native/_._": {
            "rid": "osx.10.10-x64",
            "assetType": "native"
          }
        }
      },
      "runtime.osx.10.10-x64.runtime.native.System.Security.Cryptography.OpenSsl/4.3.2": {
        "runtimeTargets": {
          "runtime/osx.10.10-x64/native/_._": {
            "rid": "osx.10.10-x64",
            "assetType": "native"
          }
        }
      },
      "runtime.rhel.7-x64.runtime.native.System.Security.Cryptography.OpenSsl/4.3.2": {
        "runtimeTargets": {
          "runtime/rhel.7-x64/native/_._": {
            "rid": "rhel.7-x64",
            "assetType": "native"
          }
        }
      },
      "runtime.ubuntu.14.04-x64.runtime.native.System.Security.Cryptography.OpenSsl/4.3.2": {
        "runtimeTargets": {
          "runtime/ubuntu.14.04-x64/native/_._": {
            "rid": "ubuntu.14.04-x64",
            "assetType": "native"
          }
        }
      },
      "runtime.ubuntu.16.04-x64.runtime.native.System.Security.Cryptography.OpenSsl/4.3.2": {
        "runtimeTargets": {
          "runtime/ubuntu.16.04-x64/native/_._": {
            "rid": "ubuntu.16.04-x64",
            "assetType": "native"
          }
        }
      },
      "runtime.ubuntu.16.10-x64.runtime.native.System.Security.Cryptography.OpenSsl/4.3.2": {
        "runtimeTargets": {
          "runtime/ubuntu.16.10-x64/native/_._": {
            "rid": "ubuntu.16.10-x64",
            "assetType": "native"
          }
        }
      },
      "System.Collections/4.3.0": {
        "dependencies": {
          "System.Runtime": "4.3.0"
        }
      },
      "System.Collections.Concurrent/4.3.0": {
        "dependencies": {
          "System.Collections": "4.3.0",
          "System.Diagnostics.Debug": "4.3.0",
          "System.Diagnostics.Tracing": "4.3.0",
          "System.Globalization": "4.3.0",
          "System.Reflection": "4.3.0",
          "System.Resources.ResourceManager": "4.3.0",
          "System.Runtime": "4.3.0",
          "System.Runtime.Extensions": "4.3.0",
          "System.Threading": "4.3.0",
          "System.Threading.Tasks": "4.3.0"
        }
      },
      "System.Diagnostics.Debug/4.3.0": {
        "dependencies": {
          "System.Runtime": "4.3.0"
        }
      },
      "System.Diagnostics.Tracing/4.3.0": {
        "dependencies": {
          "System.Runtime": "4.3.0"
        }
      },
      "System.Globalization/4.3.0": {
        "dependencies": {
          "System.Runtime": "4.3.0"
        }
      },
      "System.IO/4.3.0": {
        "dependencies": {
          "System.Runtime": "4.3.0",
          "System.Text.Encoding": "4.3.0",
          "System.Threading.Tasks": "4.3.0"
        }
      },
      "System.Linq/4.3.0": {
        "dependencies": {
          "System.Collections": "4.3.0",
          "System.Diagnostics.Debug": "4.3.0",
          "System.Resources.ResourceManager": "4.3.0",
          "System.Runtime": "4.3.0",
          "System.Runtime.Extensions": "4.3.0"
        }
      },
      "System.Reflection/4.3.0": {
        "dependencies": {
          "System.IO": "4.3.0",
          "System.Reflection.Primitives": "4.3.0",
          "System.Runtime": "4.3.0"
        }
      },
      "System.Reflection.Primitives/4.3.0": {
        "dependencies": {
          "System.Runtime": "4.3.0"
        }
      },
      "System.Resources.ResourceManager/4.3.0": {
        "dependencies": {
          "System.Globalization": "4.3.0",
          "System.Reflection": "4.3.0",
          "System.Runtime": "4.3.0"
        }
      },
      "System.Runtime/4.3.0": {},
      "System.Runtime.Extensions/4.3.0": {
        "dependencies": {
          "System.Runtime": "4.3.0"
        }
      },
      "System.Runtime.Handles/4.3.0": {
        "dependencies": {
          "System.Runtime": "4.3.0"
        }
      },
      "System.Runtime.InteropServices/4.3.0": {
        "dependencies": {
          "System.Reflection": "4.3.0",
          "System.Reflection.Primitives": "4.3.0",
          "System.Runtime": "4.3.0",
          "System.Runtime.Handles": "4.3.0"
        }
      },
      "System.Runtime.Numerics/4.3.0": {
        "dependencies": {
          "System.Globalization": "4.3.0",
          "System.Resources.ResourceManager": "4.3.0",
          "System.Runtime": "4.3.0",
          "System.Runtime.Extensions": "4.3.0"
        }
      },
      "System.Security.Cryptography.Algorithms/4.3.1": {
        "dependencies": {
          "System.Collections": "4.3.0",
          "System.IO": "4.3.0",
          "System.Resources.ResourceManager": "4.3.0",
          "System.Runtime": "4.3.0",
          "System.Runtime.Extensions": "4.3.0",
          "System.Runtime.Handles": "4.3.0",
          "System.Runtime.InteropServices": "4.3.0",
          "System.Runtime.Numerics": "4.3.0",
          "System.Security.Cryptography.Encoding": "4.3.0",
          "System.Security.Cryptography.Primitives": "4.3.0",
          "System.Text.Encoding": "4.3.0",
          "runtime.native.System.Security.Cryptography.Apple": "4.3.1",
          "runtime.native.System.Security.Cryptography.OpenSsl": "4.3.2"
        },
        "runtimeTargets": {
          "runtime/osx/lib/_._": {
            "rid": "osx",
            "assetType": "runtime"
          },
          "runtime/unix/lib/_._": {
            "rid": "unix",
            "assetType": "runtime"
          },
          "runtime/win/lib/_._": {
            "rid": "win",
            "assetType": "runtime"
          }
        }
      },
      "System.Security.Cryptography.Encoding/4.3.0": {
        "dependencies": {
          "System.Collections": "4.3.0",
          "System.Collections.Concurrent": "4.3.0",
          "System.Linq": "4.3.0",
          "System.Resources.ResourceManager": "4.3.0",
          "System.Runtime": "4.3.0",
          "System.Runtime.Extensions": "4.3.0",
          "System.Runtime.Handles": "4.3.0",
          "System.Runtime.InteropServices": "4.3.0",
          "System.Security.Cryptography.Primitives": "4.3.0",
          "System.Text.Encoding": "4.3.0",
          "runtime.native.System.Security.Cryptography.OpenSsl": "4.3.2"
        },
        "runtimeTargets": {
          "runtime/unix/lib/_._": {
            "rid": "unix",
            "assetType": "runtime"
          },
          "runtime/win/lib/_._": {
            "rid": "win",
            "assetType": "runtime"
          }
        }
      },
      "System.Security.Cryptography.Primitives/4.3.0": {
        "dependencies": {
          "System.Diagnostics.Debug": "4.3.0",
          "System.Globalization": "4.3.0",
          "System.IO": "4.3.0",
          "System.Resources.ResourceManager": "4.3.0",
          "System.Runtime": "4.3.0",
          "System.Threading": "4.3.0",
          "System.Threading.Tasks": "4.3.0"
        }
      },
      "System.Text.Encoding/4.3.0": {
        "dependencies": {
          "System.Runtime": "4.3.0"
        }
      },
      "System.Threading/4.3.0": {
        "dependencies": {
          "System.Runtime": "4.3.0",
          "System.Threading.Tasks": "4.3.0"
        }
      },
      "System.Threading.Tasks/4.3.0": {
        "dependencies": {
          "System.Runtime": "4.3.0"
        }
      }
    }
  },
  "libraries": {
    "MicroService.Utility.Security/1.0.0": {
      "type": "project",
      "serviceable": false,
      "sha512": ""
    },
    "runtime.debian.8-x64.runtime.native.System.Security.Cryptography.OpenSsl/4.3.2": {
      "type": "package",
      "serviceable": true,
      "sha512": "sha512-jwcVUu4ELwy6ObG6ChIFz3PeRH1mKZW65o+FellG99FUwCmnnjdGkIFnVoeHPIvyue/lf1y9Zgw2axylGCP38g==",
      "path": "runtime.debian.8-x64.runtime.native.system.security.cryptography.openssl/4.3.2",
      "hashPath": "runtime.debian.8-x64.runtime.native.system.security.cryptography.openssl.4.3.2.nupkg.sha512"
    },
    "runtime.fedora.23-x64.runtime.native.System.Security.Cryptography.OpenSsl/4.3.2": {
      "type": "package",
      "serviceable": true,
      "sha512": "sha512-oTXKD09aSTGbWlK39DOPil/EOH7fJvKebL9jo8OjeytcUcnK9WLsQeRw+6KBBgNiRlvFaRW+eC1sdXeKphleRg==",
      "path": "runtime.fedora.23-x64.runtime.native.system.security.cryptography.openssl/4.3.2",
      "hashPath": "runtime.fedora.23-x64.runtime.native.system.security.cryptography.openssl.4.3.2.nupkg.sha512"
    },
    "runtime.fedora.24-x64.runtime.native.System.Security.Cryptography.OpenSsl/4.3.2": {
      "type": "package",
      "serviceable": true,
      "sha512": "sha512-LyTiy6iKlrsjhI4UBIeORHimVkI4e3t2qkAHWH/nxNggjL3lPT7WX40Ncc1oi/wWvmbcX3vPhMeyzPGzxQWwtA==",
      "path": "runtime.fedora.24-x64.runtime.native.system.security.cryptography.openssl/4.3.2",
      "hashPath": "runtime.fedora.24-x64.runtime.native.system.security.cryptography.openssl.4.3.2.nupkg.sha512"
    },
    "runtime.native.System.Security.Cryptography.Apple/4.3.1": {
      "type": "package",
      "serviceable": true,
      "sha512": "sha512-C+AZUmQBFgXR/NxF80q0Sy7SgYiW+C3CcIuA7yd0f1FXWN16xhIRSmXN92IUSGx/ebGN3XmaeuVUZpd+NuY/jQ==",
      "path": "runtime.native.system.security.cryptography.apple/4.3.1",
      "hashPath": "runtime.native.system.security.cryptography.apple.4.3.1.nupkg.sha512"
    },
    "runtime.native.System.Security.Cryptography.OpenSsl/4.3.2": {
      "type": "package",
      "serviceable": true,
      "sha512": "sha512-o0rS2+Z+/K6X/L6levOGswZgqYq4IppWwNyiQTFuZzz3om4Zxu+2txF8wnH98gh0G6b4RHriVMkay6Pdt9KSOg==",
      "path": "runtime.native.system.security.cryptography.openssl/4.3.2",
      "hashPath": "runtime.native.system.security.cryptography.openssl.4.3.2.nupkg.sha512"
    },
    "runtime.opensuse.13.2-x64.runtime.native.System.Security.Cryptography.OpenSsl/4.3.2": {
      "type": "package",
      "serviceable": true,
      "sha512": "sha512-zghz4HAA35jmQL0mXpadSpI2U1zuJpnFNj86spdVew11YmBVeZXy7hY8/wX8K6ki1mug5MsoUh+EHn1UarO2Pg==",
      "path": "runtime.opensuse.13.2-x64.runtime.native.system.security.cryptography.openssl/4.3.2",
      "hashPath": "runtime.opensuse.13.2-x64.runtime.native.system.security.cryptography.openssl.4.3.2.nupkg.sha512"
    },
    "runtime.opensuse.42.1-x64.runtime.native.System.Security.Cryptography.OpenSsl/4.3.2": {
      "type": "package",
      "serviceable": true,
      "sha512": "sha512-v3VMGmbNcNwb041U/mdendRwQX67pi4veeJ4vo8GzDSW/1jtkNMLXdTT7+qazL0J6xfNh76IKVHA/fuDPDcfcA==",
      "path": "runtime.opensuse.42.1-x64.runtime.native.system.security.cryptography.openssl/4.3.2",
      "hashPath": "runtime.opensuse.42.1-x64.runtime.native.system.security.cryptography.openssl.4.3.2.nupkg.sha512"
    },
    "runtime.osx.10.10-x64.runtime.native.System.Security.Cryptography.Apple/4.3.1": {
      "type": "package",
      "serviceable": true,
      "sha512": "sha512-YVeP6XccbJen1k3sjfntjqWS+vAcVt37VW3eBuZvjH7ZlTmQz3t6n8gLNh342IeDSBM+06SPYtBqP1roAlIpDA==",
      "path": "runtime.osx.10.10-x64.runtime.native.system.security.cryptography.apple/4.3.1",
      "hashPath": "runtime.osx.10.10-x64.runtime.native.system.security.cryptography.apple.4.3.1.nupkg.sha512"
    },
    "runtime.osx.10.10-x64.runtime.native.System.Security.Cryptography.OpenSsl/4.3.2": {
      "type": "package",
      "serviceable": true,
      "sha512": "sha512-CjjyXodztYFVtdP5T4SbkzU9CAnaViKLjrq1yXbmRYylDrWjisykyJQGeObpUh+1euSHM398vy6niTrp4/Q5NQ==",
      "path": "runtime.osx.10.10-x64.runtime.native.system.security.cryptography.openssl/4.3.2",
      "hashPath": "runtime.osx.10.10-x64.runtime.native.system.security.cryptography.openssl.4.3.2.nupkg.sha512"
    },
    "runtime.rhel.7-x64.runtime.native.System.Security.Cryptography.OpenSsl/4.3.2": {
      "type": "package",
      "serviceable": true,
      "sha512": "sha512-KunbS3GbMfp+QMYPUscAOPyGaOApz04dEg/ejClWMdawggfXAYoik3t5VGAWxWDIlOJ91uvAHV4PZ3Vn5rLE8g==",
      "path": "runtime.rhel.7-x64.runtime.native.system.security.cryptography.openssl/4.3.2",
      "hashPath": "runtime.rhel.7-x64.runtime.native.system.security.cryptography.openssl.4.3.2.nupkg.sha512"
    },
    "runtime.ubuntu.14.04-x64.runtime.native.System.Security.Cryptography.OpenSsl/4.3.2": {
      "type": "package",
      "serviceable": true,
      "sha512": "sha512-zUt7p0TegAhlIatnytLbMIXUiDiNPZy4PZlGOJ8PTHhFOb86T/uNTzNHxceBOq3vlbNV/SVj4wyUiog8J7lShw==",
      "path": "runtime.ubuntu.14.04-x64.runtime.native.system.security.cryptography.openssl/4.3.2",
      "hashPath": "runtime.ubuntu.14.04-x64.runtime.native.system.security.cryptography.openssl.4.3.2.nupkg.sha512"
    },
    "runtime.ubuntu.16.04-x64.runtime.native.System.Security.Cryptography.OpenSsl/4.3.2": {
      "type": "package",
      "serviceable": true,
      "sha512": "sha512-1/woqfYA5HHtzgmJwBxIXU4qfplVH1MUE6+nUDmkAE1OLCfoiXbWVDJjWjIdhjFqPGza68ey/vpCFBtk9PENZg==",
      "path": "runtime.ubuntu.16.04-x64.runtime.native.system.security.cryptography.openssl/4.3.2",
      "hashPath": "runtime.ubuntu.16.04-x64.runtime.native.system.security.cryptography.openssl.4.3.2.nupkg.sha512"
    },
    "runtime.ubuntu.16.10-x64.runtime.native.System.Security.Cryptography.OpenSsl/4.3.2": {
      "type": "package",
      "serviceable": true,
      "sha512": "sha512-X+DmqHjv9Zz+JKjVevURQFdtjg/sSYjkiSwjPEezo+7SfewHKmwNVd1hV3fNnOP+VFxTU7SpUok3atC5QI7Uvg==",
      "path": "runtime.ubuntu.16.10-x64.runtime.native.system.security.cryptography.openssl/4.3.2",
      "hashPath": "runtime.ubuntu.16.10-x64.runtime.native.system.security.cryptography.openssl.4.3.2.nupkg.sha512"
    },
    "System.Collections/4.3.0": {
      "type": "package",
      "serviceable": true,
      "sha512": "sha512-3Dcj85/TBdVpL5Zr+gEEBUuFe2icOnLalmEh9hfck1PTYbbyWuZgh4fmm2ysCLTrqLQw6t3TgTyJ+VLp+Qb+Lw==",
      "path": "system.collections/4.3.0",
      "hashPath": "system.collections.4.3.0.nupkg.sha512"
    },
    "System.Collections.Concurrent/4.3.0": {
      "type": "package",
      "serviceable": true,
      "sha512": "sha512-ztl69Xp0Y/UXCL+3v3tEU+lIy+bvjKNUmopn1wep/a291pVPK7dxBd6T7WnlQqRog+d1a/hSsgRsmFnIBKTPLQ==",
      "path": "system.collections.concurrent/4.3.0",
      "hashPath": "system.collections.concurrent.4.3.0.nupkg.sha512"
    },
    "System.Diagnostics.Debug/4.3.0": {
      "type": "package",
      "serviceable": true,
      "sha512": "sha512-ZUhUOdqmaG5Jk3Xdb8xi5kIyQYAA4PnTNlHx1mu9ZY3qv4ELIdKbnL/akbGaKi2RnNUWaZsAs31rvzFdewTj2g==",
      "path": "system.diagnostics.debug/4.3.0",
      "hashPath": "system.diagnostics.debug.4.3.0.nupkg.sha512"
    },
    "System.Diagnostics.Tracing/4.3.0": {
      "type": "package",
      "serviceable": true,
      "sha512": "sha512-rswfv0f/Cqkh78rA5S8eN8Neocz234+emGCtTF3lxPY96F+mmmUen6tbn0glN6PMvlKQb9bPAY5e9u7fgPTkKw==",
      "path": "system.diagnostics.tracing/4.3.0",
      "hashPath": "system.diagnostics.tracing.4.3.0.nupkg.sha512"
    },
    "System.Globalization/4.3.0": {
      "type": "package",
      "serviceable": true,
      "sha512": "sha512-kYdVd2f2PAdFGblzFswE4hkNANJBKRmsfa2X5LG2AcWE1c7/4t0pYae1L8vfZ5xvE2nK/R9JprtToA61OSHWIg==",
      "path": "system.globalization/4.3.0",
      "hashPath": "system.globalization.4.3.0.nupkg.sha512"
    },
    "System.IO/4.3.0": {
      "type": "package",
      "serviceable": true,
      "sha512": "sha512-3qjaHvxQPDpSOYICjUoTsmoq5u6QJAFRUITgeT/4gqkF1bajbSmb1kwSxEA8AHlofqgcKJcM8udgieRNhaJ5Cg==",
      "path": "system.io/4.3.0",
      "hashPath": "system.io.4.3.0.nupkg.sha512"
    },
    "System.Linq/4.3.0": {
      "type": "package",
      "serviceable": true,
      "sha512": "sha512-5DbqIUpsDp0dFftytzuMmc0oeMdQwjcP/EWxsksIz/w1TcFRkZ3yKKz0PqiYFMmEwPSWw+qNVqD7PJ889JzHbw==",
      "path": "system.linq/4.3.0",
      "hashPath": "system.linq.4.3.0.nupkg.sha512"
    },
    "System.Reflection/4.3.0": {
      "type": "package",
      "serviceable": true,
      "sha512": "sha512-KMiAFoW7MfJGa9nDFNcfu+FpEdiHpWgTcS2HdMpDvt9saK3y/G4GwprPyzqjFH9NTaGPQeWNHU+iDlDILj96aQ==",
      "path": "system.reflection/4.3.0",
      "hashPath": "system.reflection.4.3.0.nupkg.sha512"
    },
    "System.Reflection.Primitives/4.3.0": {
      "type": "package",
      "serviceable": true,
      "sha512": "sha512-5RXItQz5As4xN2/YUDxdpsEkMhvw3e6aNveFXUn4Hl/udNTCNhnKp8lT9fnc3MhvGKh1baak5CovpuQUXHAlIA==",
      "path": "system.reflection.primitives/4.3.0",
      "hashPath": "system.reflection.primitives.4.3.0.nupkg.sha512"
    },
    "System.Resources.ResourceManager/4.3.0": {
      "type": "package",
      "serviceable": true,
      "sha512": "sha512-/zrcPkkWdZmI4F92gL/TPumP98AVDu/Wxr3CSJGQQ+XN6wbRZcyfSKVoPo17ilb3iOr0cCRqJInGwNMolqhS8A==",
      "path": "system.resources.resourcemanager/4.3.0",
      "hashPath": "system.resources.resourcemanager.4.3.0.nupkg.sha512"
    },
    "System.Runtime/4.3.0": {
      "type": "package",
      "serviceable": true,
      "sha512": "sha512-JufQi0vPQ0xGnAczR13AUFglDyVYt4Kqnz1AZaiKZ5+GICq0/1MH/mO/eAJHt/mHW1zjKBJd7kV26SrxddAhiw==",
      "path": "system.runtime/4.3.0",
      "hashPath": "system.runtime.4.3.0.nupkg.sha512"
    },
    "System.Runtime.Extensions/4.3.0": {
      "type": "package",
      "serviceable": true,
      "sha512": "sha512-guW0uK0fn5fcJJ1tJVXYd7/1h5F+pea1r7FLSOz/f8vPEqbR2ZAknuRDvTQ8PzAilDveOxNjSfr0CHfIQfFk8g==",
      "path": "system.runtime.extensions/4.3.0",
      "hashPath": "system.runtime.extensions.4.3.0.nupkg.sha512"
    },
    "System.Runtime.Handles/4.3.0": {
      "type": "package",
      "serviceable": true,
      "sha512": "sha512-OKiSUN7DmTWeYb3l51A7EYaeNMnvxwE249YtZz7yooT4gOZhmTjIn48KgSsw2k2lYdLgTKNJw/ZIfSElwDRVgg==",
      "path": "system.runtime.handles/4.3.0",
      "hashPath": "system.runtime.handles.4.3.0.nupkg.sha512"
    },
    "System.Runtime.InteropServices/4.3.0": {
      "type": "package",
      "serviceable": true,
      "sha512": "sha512-uv1ynXqiMK8mp1GM3jDqPCFN66eJ5w5XNomaK2XD+TuCroNTLFGeZ+WCmBMcBDyTFKou3P6cR6J/QsaqDp7fGQ==",
      "path": "system.runtime.interopservices/4.3.0",
      "hashPath": "system.runtime.interopservices.4.3.0.nupkg.sha512"
    },
    "System.Runtime.Numerics/4.3.0": {
      "type": "package",
      "serviceable": true,
      "sha512": "sha512-yMH+MfdzHjy17l2KESnPiF2dwq7T+xLnSJar7slyimAkUh/gTrS9/UQOtv7xarskJ2/XDSNvfLGOBQPjL7PaHQ==",
      "path": "system.runtime.numerics/4.3.0",
      "hashPath": "system.runtime.numerics.4.3.0.nupkg.sha512"
    },
    "System.Security.Cryptography.Algorithms/4.3.1": {
      "type": "package",
      "serviceable": true,
      "sha512": "sha512-NLArYLaaVOExC1EVEuMhCkm/sFhMUPgLWcWG1xgK2XPjtUGfelV4ODeIQ5VGDbPg2xPI+yfebRcLjS2rHJCtzw==",
      "path": "system.security.cryptography.algorithms/4.3.1",
      "hashPath": "system.security.cryptography.algorithms.4.3.1.nupkg.sha512"
    },
    "System.Security.Cryptography.Encoding/4.3.0": {
      "type": "package",
      "serviceable": true,
      "sha512": "sha512-1DEWjZZly9ae9C79vFwqaO5kaOlI5q+3/55ohmq/7dpDyDfc8lYe7YVxJUZ5MF/NtbkRjwFRo14yM4OEo9EmDw==",
      "path": "system.security.cryptography.encoding/4.3.0",
      "hashPath": "system.security.cryptography.encoding.4.3.0.nupkg.sha512"
    },
    "System.Security.Cryptography.Primitives/4.3.0": {
      "type": "package",
      "serviceable": true,
      "sha512": "sha512-7bDIyVFNL/xKeFHjhobUAQqSpJq9YTOpbEs6mR233Et01STBMXNAc/V+BM6dwYGc95gVh/Zf+iVXWzj3mE8DWg==",
      "path": "system.security.cryptography.primitives/4.3.0",
      "hashPath": "system.security.cryptography.primitives.4.3.0.nupkg.sha512"
    },
    "System.Text.Encoding/4.3.0": {
      "type": "package",
      "serviceable": true,
      "sha512": "sha512-BiIg+KWaSDOITze6jGQynxg64naAPtqGHBwDrLaCtixsa5bKiR8dpPOHA7ge3C0JJQizJE+sfkz1wV+BAKAYZw==",
      "path": "system.text.encoding/4.3.0",
      "hashPath": "system.text.encoding.4.3.0.nupkg.sha512"
    },
    "System.Threading/4.3.0": {
      "type": "package",
      "serviceable": true,
      "sha512": "sha512-VkUS0kOBcUf3Wwm0TSbrevDDZ6BlM+b/HRiapRFWjM5O0NS0LviG0glKmFK+hhPDd1XFeSdU1GmlLhb2CoVpIw==",
      "path": "system.threading/4.3.0",
      "hashPath": "system.threading.4.3.0.nupkg.sha512"
    },
    "System.Threading.Tasks/4.3.0": {
      "type": "package",
      "serviceable": true,
      "sha512": "sha512-LbSxKEdOUhVe8BezB/9uOGGppt+nZf6e1VFyw6v3DN6lqitm0OSn2uXMOdtP0M3W4iMcqcivm2J6UgqiwwnXiA==",
      "path": "system.threading.tasks/4.3.0",
      "hashPath": "system.threading.tasks.4.3.0.nupkg.sha512"
    }
  }
}